FPU/fpu_tb.vcd
$date
	Mon Apr 08 04:30:14 2019
$end
$version
	ModelSim Version 10.4a
$end
$timescale
	100ps
$end

$scope module fpu_tb $end
$var reg 1 ! clock $end
$var reg 32 " a [31:0] $end
$var reg 32 # b [31:0] $end
$var reg 2 $ op [1:0] $end
$var wire 1 % out [31] $end
$var wire 1 & out [30] $end
$var wire 1 ' out [29] $end
$var wire 1 ( out [28] $end
$var wire 1 ) out [27] $end
$var wire 1 * out [26] $end
$var wire 1 + out [25] $end
$var wire 1 , out [24] $end
$var wire 1 - out [23] $end
$var wire 1 . out [22] $end
$var wire 1 / out [21] $end
$var wire 1 0 out [20] $end
$var wire 1 1 out [19] $end
$var wire 1 2 out [18] $end
$var wire 1 3 out [17] $end
$var wire 1 4 out [16] $end
$var wire 1 5 out [15] $end
$var wire 1 6 out [14] $end
$var wire 1 7 out [13] $end
$var wire 1 8 out [12] $end
$var wire 1 9 out [11] $end
$var wire 1 : out [10] $end
$var wire 1 ; out [9] $end
$var wire 1 < out [8] $end
$var wire 1 = out [7] $end
$var wire 1 > out [6] $end
$var wire 1 ? out [5] $end
$var wire 1 @ out [4] $end
$var wire 1 A out [3] $end
$var wire 1 B out [2] $end
$var wire 1 C out [1] $end
$var wire 1 D out [0] $end
$upscope $end
$enddefinitions $end
#0
$dumpvars
0!
b11110100010100110001010111111001 "
b100001101010000111001101011010 #
b0 $
xD
xC
xB
xA
x@
x?
x>
x=
x<
x;
x:
x9
x8
x7
x6
x5
x4
x3
x2
x1
x0
x/
x.
x-
x,
x+
x*
x)
x(
x'
x&
x%
$end
#1000
1!
#2000
0!
#3000
1!
1%
1D
0C
0B
1A
1@
1?
1>
1=
1<
0;
1:
09
18
07
06
05
14
13
02
01
10
0/
1.
0-
0,
0+
1*
0)
1(
1'
1&
#4000
b11100101011101101001110011010001 "
b10110110011100111001011010110000 #
0!
#5000
1!
#6000
0!
#7000
1!
0A
0?
0<
19
15
04
12
1/
1,
0(
#8000
b100000000011110011011011001 "
b111101001111100011111111001111 #
0!
#9000
1!
#10000
0!
#11000
1!
0%
1C
1B
1A
0@
1<
1;
17
05
11
0.
1)
1(
0&
#12000
b1001000100000011101100101111001 "
b1101010110100011011010010110 #
0!
#13000
1!
#14000
0!
#15000
1!
0C
0B
1@
1?
0=
0;
0:
07
16
15
14
03
02
01
00
0/
1-
0,
0*
0(
0'
1&
#16000
b10000111011010100010100010000010 "
b1000101111111011001111010010001 #
0!
#17000
1!
#18000
0!
#19000
1!
0A
0?
0>
1=
0<
1;
1:
06
12
11
10
1/
1.
1,
1*
0)
