FPU/fpu_tb.vcd
$date
	Tue May 07 13:46:58 2019
$end
$version
	ModelSim Version 10.4a
$end
$timescale
	100ps
$end

$scope module fpu_tb $end
$var reg 1 ! clock $end
$var reg 32 " a [31:0] $end
$var reg 32 # b [31:0] $end
$var reg 2 $ op [1:0] $end
$var wire 1 % out [31] $end
$var wire 1 & out [30] $end
$var wire 1 ' out [29] $end
$var wire 1 ( out [28] $end
$var wire 1 ) out [27] $end
$var wire 1 * out [26] $end
$var wire 1 + out [25] $end
$var wire 1 , out [24] $end
$var wire 1 - out [23] $end
$var wire 1 . out [22] $end
$var wire 1 / out [21] $end
$var wire 1 0 out [20] $end
$var wire 1 1 out [19] $end
$var wire 1 2 out [18] $end
$var wire 1 3 out [17] $end
$var wire 1 4 out [16] $end
$var wire 1 5 out [15] $end
$var wire 1 6 out [14] $end
$var wire 1 7 out [13] $end
$var wire 1 8 out [12] $end
$var wire 1 9 out [11] $end
$var wire 1 : out [10] $end
$var wire 1 ; out [9] $end
$var wire 1 < out [8] $end
$var wire 1 = out [7] $end
$var wire 1 > out [6] $end
$var wire 1 ? out [5] $end
$var wire 1 @ out [4] $end
$var wire 1 A out [3] $end
$var wire 1 B out [2] $end
$var wire 1 C out [1] $end
$var wire 1 D out [0] $end
$upscope $end
$enddefinitions $end
#0
$dumpvars
0!
b101011100001010011010100101010 "
b1010100011011011100100100111001 #
b11 $
xD
xC
xB
xA
x@
x?
x>
x=
x<
x;
x:
x9
x8
x7
x6
x5
x4
x3
x2
x1
x0
x/
x.
x-
x,
x+
x*
x)
x(
x'
x&
x%
$end
#1000
1!
#2000
0!
#3000
1!
0%
0D
0C
0B
1A
1@
0?
1>
1=
1<
0;
1:
09
18
17
16
05
14
13
12
01
10
1/
1.
0-
0,
0+
0*
0)
0(
0'
1&
#4000
b11100101100101100000001000100101 "
b10110100010100100111000100101001 #
0!
#5000
1!
#6000
0!
#7000
1!
1C
0A
0@
1?
0>
0=
0<
0:
08
06
15
04
1+
1)
1(
#8000
b1011010100000100110000101011111 "
b1011100110000001100000111000011 #
0!
#9000
1!
#10000
0!
#11000
1!
1D
1A
1>
1<
1;
1:
18
07
16
05
03
00
0/
1-
1,
1*
0)
1'
#12000
b1111011100110011100111110001100 "
b111000011111000000100101000 #
0!
#13000
1!
#14000
0!
#15000
1!
0C
0A
1@
0?
0>
0;
0:
17
11
1/
0.
0-
0*
0(
0'
#16000
b110000111111101111010010010000 "
b11101010010111000000011111011011 #
0!
#17000
1!
#18000
0!
#19000
1!
1%
0D
1C
1B
1A
1?
1>
1=
08
06
14
13
02
10
0/
1.
1-
1)
1(
