FPU/fpu_tb.vcd
$date
	Thu Apr 25 06:20:48 2019
$end
$version
	ModelSim Version 10.4a
$end
$timescale
	100ps
$end

$scope module fpu_tb $end
$var reg 1 ! clock $end
$var reg 32 " a [31:0] $end
$var reg 32 # b [31:0] $end
$var reg 2 $ op [1:0] $end
$var wire 1 % out [31] $end
$var wire 1 & out [30] $end
$var wire 1 ' out [29] $end
$var wire 1 ( out [28] $end
$var wire 1 ) out [27] $end
$var wire 1 * out [26] $end
$var wire 1 + out [25] $end
$var wire 1 , out [24] $end
$var wire 1 - out [23] $end
$var wire 1 . out [22] $end
$var wire 1 / out [21] $end
$var wire 1 0 out [20] $end
$var wire 1 1 out [19] $end
$var wire 1 2 out [18] $end
$var wire 1 3 out [17] $end
$var wire 1 4 out [16] $end
$var wire 1 5 out [15] $end
$var wire 1 6 out [14] $end
$var wire 1 7 out [13] $end
$var wire 1 8 out [12] $end
$var wire 1 9 out [11] $end
$var wire 1 : out [10] $end
$var wire 1 ; out [9] $end
$var wire 1 < out [8] $end
$var wire 1 = out [7] $end
$var wire 1 > out [6] $end
$var wire 1 ? out [5] $end
$var wire 1 @ out [4] $end
$var wire 1 A out [3] $end
$var wire 1 B out [2] $end
$var wire 1 C out [1] $end
$var wire 1 D out [0] $end
$upscope $end
$enddefinitions $end
#0
$dumpvars
0!
b11001010101011001111000011011111 "
b1101010011110111001010111100001 #
b10 $
xD
xC
xB
xA
x@
x?
x>
x=
x<
x;
x:
x9
x8
x7
x6
x5
x4
x3
x2
x1
x0
x/
x.
x-
x,
x+
x*
x)
x(
x'
x&
x%
$end
#1000
1!
#2000
0!
#3000
1!
1%
0D
0C
0B
1A
1@
1?
0>
1=
1<
0;
0:
19
18
17
16
15
14
13
12
11
00
1/
0.
1-
1,
1+
1*
1)
1(
0'
0&
#4000
b10010000000000010101100101000 "
b10001100000111110000010010100 #
0!
#5000
1!
#6000
0!
#7000
1!
0%
1C
1>
0<
1:
08
07
04
03
02
10
1.
1'
#8000
b1101110111001001011100101001100 "
b1000110101110100010010100010000 #
0!
#9000
1!
#10000
0!
#11000
1!
1D
1B
0A
0@
0=
1<
1;
09
05
14
12
0/
0.
0)
0(
1&
#12000
b1000000001000001011001010011101 "
b11101100011001111010001101101110 #
0!
#13000
1!
#14000
0!
#15000
1!
1%
0D
0B
1@
0>
0;
0:
19
18
06
15
02
01
1/
0-
0*
1(
0'
0&
#16000
b11110000101001001011001010000011 "
b11011101100000100110110111010011 #
0!
#17000
1!
#18000
0!
#19000
1!
0%
1D
1B
1A
0@
0?
1>
09
08
17
00
1-
0,
1&
